{
    "KPlugin": {
        "Authors": [
            {
                "Email": "sebas@kde.org",
                "Name": "Sebastian Kügler",
                "Name[ar]": "Sebastian Kügler",
                "Name[az]": "Sebastian Kügler",
                "Name[ca@valencia]": "Sebastian Kügler",
                "Name[ca]": "Sebastian Kügler",
                "Name[cs]": "Sebastian Kügler",
                "Name[en_GB]": "Sebastian Kügler",
                "Name[es]": "Sebastian Kügler",
                "Name[eu]": "Sebastian Kügler",
                "Name[fi]": "Sebastian Kügler",
                "Name[fr]": "Sebastian Kügler",
                "Name[hu]": "Sebastian Kügler",
                "Name[ia]": "Sebastian Kügler",
                "Name[it]": "Sebastian Kügler",
                "Name[ko]": "Sebastian Kügler",
                "Name[lt]": "Sebastian Kügler",
                "Name[nl]": "Sebastian Kügler",
                "Name[nn]": "Sebastian Kügler",
                "Name[pl]": "Sebastian Kügler",
                "Name[pt_BR]": "Sebastian Kügler",
                "Name[ro]": "Sebastian Kügler",
                "Name[ru]": "Sebastian Kügler",
                "Name[sk]": "Sebastian Kügler",
                "Name[sl]": "Sebastian Kügler",
                "Name[sv]": "Sebastian Kügler",
                "Name[uk]": "Sebastian Kügler",
                "Name[vi]": "Sebastian Kügler",
                "Name[x-test]": "xxSebastian Küglerxx",
                "Name[zh_CN]": "Sebastian Kügler"
            }
        ],
        "Category": "Containments",
        "Description": "Manage Plasma",
        "Description[ar]": "يدير بلازما",
        "Description[az]": "Plasma Meneceri",
        "Description[ca@valencia]": "Gestió del Plasma",
        "Description[ca]": "Gestió del Plasma",
        "Description[cs]": "Spravovat Plasmu",
        "Description[en_GB]": "Manage Plasma",
        "Description[es]": "Gestión de Plasma",
        "Description[eu]": "Kudeatu Plasma",
        "Description[fi]": "Plasman hallinta",
        "Description[fr]": "Gérer Plasma",
        "Description[hu]": "Plasma kezelése",
        "Description[ia]": "Gere Plasma",
        "Description[it]": "Gestisce Plasma",
        "Description[ko]": "Plasma 관리",
        "Description[lt]": "Tvarkyti Plasma",
        "Description[nl]": "Plasma beheren",
        "Description[nn]": "Handsam Plasma",
        "Description[pa]": "ਪਲਾਜ਼ਮਾ ਇੰਤਜ਼ਾਮ",
        "Description[pl]": "Zarządzanie Plazmą",
        "Description[pt_BR]": "Gerencia o Plasma",
        "Description[ro]": "Gestionează Plasma",
        "Description[ru]": "Настройка рабочей среды Plasma",
        "Description[sl]": "Upravljanje Plasme",
        "Description[sv]": "Hantera Plasma",
        "Description[uk]": "Керування Плазмою",
        "Description[vi]": "Quản lí Plasma",
        "Description[x-test]": "xxManage Plasmaxx",
        "Description[zh_CN]": "管理 Plasma",
        "EnabledByDefault": true,
        "Icon": "plasma",
        "Id": "org.kde.desktoptoolbox",
        "License": "LGPLv2",
        "Name": "Declarative Toolbox",
        "Name[ar]": "صندوق الأدوات التعريفي ",
        "Name[az]": "Bildirişli Alətlər Qutusu",
        "Name[bs]": "Deklarativna kutija s alatom",
        "Name[ca@valencia]": "Quadre d'eines declaratiu",
        "Name[ca]": "Quadre d'eines declaratiu",
        "Name[cs]": "Deklarativní nástroje panelu",
        "Name[da]": "Erklærende værktøjskasse",
        "Name[de]": "Deklarativer Werkzeugkasten",
        "Name[el]": "Εργαλεία",
        "Name[en_GB]": "Declarative Toolbox",
        "Name[es]": "Caja de herramientas declarativa",
        "Name[et]": "Deklaratiivne tööriistakast",
        "Name[eu]": "Tresna-kutxa deklaratzailea",
        "Name[fi]": "Deklaratiivinen työkalupakki",
        "Name[fr]": "Boîte à outils « Declarative »",
        "Name[gl]": "Caixa de ferramentas declarativa",
        "Name[hu]": "Deklaratív eszközdoboz",
        "Name[ia]": "Instrumentario declarative",
        "Name[id]": "Perkakas Deklaratif",
        "Name[is]": "Skilgreininga-verkfærasafn",
        "Name[it]": "Strumento dichiarativo",
        "Name[kk]": "Мәлімдеме құралдары",
        "Name[ko]": "선언형 도구상자",
        "Name[lt]": "Deklaratyvus priemonių komplektas",
        "Name[nb]": "Deklarerende verktøylinje",
        "Name[nds]": "Verkloren Warktüüchkist",
        "Name[nl]": "Gereedschapskist voor declaratie",
        "Name[nn]": "Deklarativ verktøylinje",
        "Name[pa]": "ਐਲਾਨ ਟੂਲਬਾਕਸ",
        "Name[pl]": "Deklaratywny przybornik",
        "Name[pt]": "Barra Declarativa",
        "Name[pt_BR]": "Barra de ferramentas declarativa",
        "Name[ro]": "Trusă de unelte declarativă",
        "Name[ru]": "Инструменты Plasma",
        "Name[sk]": "Deklaratívny nástroj",
        "Name[sl]": "Deklarativna orodjarna",
        "Name[sr@ijekavian]": "Декларативна алатница",
        "Name[sr@ijekavianlatin]": "Deklarativna alatnica",
        "Name[sr@latin]": "Deklarativna alatnica",
        "Name[sr]": "Декларативна алатница",
        "Name[sv]": "Deklarativ verktygslåda",
        "Name[ta]": "பணிமேடை கருவிப்பெட்டி",
        "Name[tr]": "Bildirim Araç Kutusu",
        "Name[uk]": "Декларативний набір інструментів",
        "Name[vi]": "Hộp công cụ khai báo",
        "Name[x-test]": "xxDeclarative Toolboxxx",
        "Name[zh_CN]": "描述工具箱",
        "Name[zh_TW]": "宣告元件工具盒",
        "ServiceTypes": [
            "Plasma/Generic"
        ],
        "Version": "0.1",
        "Website": "https://www.kde.org/plasma-desktop"
    },
    "X-Plasma-API": "declarativeappletscript",
    "X-Plasma-MainScript": "ui/ToolBoxRoot.qml",
    "X-Plasma-RequiredExtensions": "LaunchApp,"
}
